Data collection
================

Last updated on 2022-06-11, 24 new rows were added:

``` r
new_data
```

    ## # A tibble: 24 × 2
    ##    date_time           marketprice
    ##    <dttm>                    <dbl>
    ##  1 2022-06-10 00:00:00        162.
    ##  2 2022-06-10 01:00:00        162.
    ##  3 2022-06-10 02:00:00        164.
    ##  4 2022-06-10 03:00:00        179.
    ##  5 2022-06-10 04:00:00        208.
    ##  6 2022-06-10 05:00:00        214.
    ##  7 2022-06-10 06:00:00        213.
    ##  8 2022-06-10 07:00:00        195.
    ##  9 2022-06-10 08:00:00        175.
    ## 10 2022-06-10 09:00:00        164.
    ## # … with 14 more rows
